Name,CMC,Type,Color,Set,Collector Number,Rarity,Color Category,Status,Finish,Maybeboard,Image URL,Image Back URL,Tags,Notes,MTGO ID
"Dauntless Bodyguard",1,"Creature",W,"dom","14",uncommon,w,Not Owned,Non-foil,false,,,"","",67493
"Giver of Runes",1,"Creature",W,"h1r","3",rare,w,Owned,Non-foil,false,,,"","",
"Kytheon, Hero of Akros",1,"Creature",W,"pori","23s",mythic,w,Owned,Foil,false,,,"","",
"Mother of Runes",1,"Creature",W,"ulg","14",uncommon,w,Owned,Foil,false,,,"","",12553
"Student of Warfare",1,"Creature",W,"roe","47",rare,w,Owned,Foil,false,,,"","",36586
"Thraben Inspector",1,"Creature",W,"soi","44",common,w,Owned,Foil,false,,,"","",60240
"Usher of the Fallen",1,"Creature",W,"khm","35",uncommon,w,Not Owned,Non-foil,false,,,"","",87393
"Weathered Wayfarer",1,"Creature",W,"ons","59",rare,w,Owned,Non-foil,false,,,"","",17749
"Adanto Vanguard",2,"Creature",W,"mb1","10",uncommon,w,Owned,Foil,false,,,"","",
"Anafenza, Kin-Tree Spirit",2,"Creature",W,"dtk","2",rare,w,Owned,Non-foil,false,,,"","",55978
"Containment Priest",2,"Creature",W,"c14","5",rare,w,Owned,Non-foil,false,,,"","",55177
"Imposing Sovereign",2,"Creature",W,"m14","22",rare,w,Owned,Non-foil,false,,,"","",49575
"Leonin Relic-Warder",2,"Creature",W,"mbs","10",uncommon,w,Owned,Non-foil,false,,,"","",39591
"Sanctifier en-Vec",2,"Creature",W,"mh2","444",rare,w,Proxied,Non-foil,false,,,"","",
"Selfless Spirit",2,"Creature",W,"emn","40",rare,w,Owned,Foil,false,,,"","",61102
"Soulfire Grand Master",2,"Creature",W,"frf","27",mythic,m,Not Owned,Non-foil,false,,,"","",55614
"Spirit of the Labyrinth",2,"Enchantment Creature - Spirit",W,"bng","27",rare,w,Owned,Non-foil,false,,,"","",51769
"Stoneforge Mystic",2,"Creature",W,"pgpx","2016",rare,w,Owned,Foil,false,,,"","",
"Thalia, Guardian of Thraben",2,"Creature",W,"dka","24",rare,w,Owned,Non-foil,false,,,"","",43469
"Tithe Taker",2,"Creature",W,"prna","27p",rare,w,Owned,Non-foil,false,,,"","",
"Wall of Omens",2,"Creature",W,"f11","3",rare,w,Owned,Foil,false,,,"","",
"Banisher Priest",3,"Creature",W,"f14","3",rare,w,Owned,Foil,false,,,"","",
"Blade Splicer",3,"Creature",W,"nph","4",rare,w,Owned,Foil,false,,,"","",39996
"Brimaz, King of Oreskos",3,"Creature",W,"bng","5",mythic,w,Owned,Non-foil,false,,,"","",51739
"Flickerwisp",3,"Creature",W,"mma","16",uncommon,w,Owned,Foil,false,,,"","",48776
"Kinjalli's Sunwing",3,"Creature",W,"pxln","19p",rare,w,Owned,Foil,false,,,"","",
"Monastery Mentor",3,"Creature",W,"frf","20",mythic,w,Owned,Non-foil,false,,,"","",55410
"Ranger-Captain of Eos",3,"Creature",W,"h1r","5",mythic,w,Not Owned,Non-foil,false,,,"","",
"Recruiter of the Guard",3,"Creature",W,"cn2","22",rare,w,Owned,Non-foil,false,,,"","",
"Skyclave Apparition",3,"Creature",W,"znr","322",rare,w,Owned,Non-foil,false,,,"","",
"Thalia, Heretic Cathar",3,"Creature",W,"emn","46",rare,w,Owned,Foil,false,,,"","",61308
"Vryn Wingmare",3,"Creature",W,"ori","40",rare,w,Owned,Foil,false,,,"","",57848
"Hero of Bladehold",4,"Creature",W,"mbs","8",mythic,w,Not Owned,Non-foil,false,,,"","",39539
"Linvala, Keeper of Silence",4,"Creature",W,"roe","33",mythic,w,Owned,Non-foil,false,,,"","",36656
"Ranger of Eos",4,"Creature",W,"ala","21",rare,w,Owned,Non-foil,false,,,"","",30893
"Restoration Angel",4,"Creature",W,"avr","32",rare,w,Owned,Non-foil,false,,,"","",44009
"Sublime Archangel",4,"Creature",W,"m13","36",mythic,w,Owned,Non-foil,false,,,"","",45590
"Angel of Invention",5,"Creature",W,"kld","4",mythic,w,Owned,Foil,false,,,"","",61887
"Baneslayer Angel",5,"Creature",W,"m10","4",mythic,w,Owned,Non-foil,false,,,"","",33075
"Lyra Dawnbringer",5,"Creature",W,"dom","26",mythic,w,Owned,Non-foil,false,,,"","",67517
"Reveillark",5,"Creature",W,"mma","26",rare,w,Owned,Non-foil,false,,,"","",48750
"Sun Titan",6,"Creature",W,"pm11","35★",mythic,w,Owned,Non-foil,false,,,"","",
"Elesh Norn, Grand Cenobite",7,"Creature",W,"nph","9",mythic,w,Owned,Non-foil,false,,,"","",39712
"Iona, Shield of Emeria",9,"Creature",W,"zen","13",mythic,w,Owned,Non-foil,false,,,"","",34614
"Ajani, Caller of the Pride",3,"Planeswalker",W,"m13","1",mythic,w,Owned,Non-foil,false,,,"","",45426
"Gideon of the Trials",3,"Planeswalker",W,"ps17","14",mythic,w,Owned,Foil,false,,,"","",
"Elspeth, Knight-Errant",4,"Planeswalker",W,"ala","9",mythic,w,Owned,Non-foil,false,,,"","",30927
"Gideon, Ally of Zendikar",4,"Planeswalker",W,"pbfz","29s",mythic,w,Owned,Non-foil,false,,,"","",
"Elspeth, Sun's Champion",6,"Planeswalker",W,"ddo","1",mythic,w,Owned,Foil,false,,,"","",
"Blossoming Calm",1,"Instant",W,"mh2","327",uncommon,w,Proxied,Non-foil,false,,,"","",
"Condemn",1,"Instant",W,"dis","8",uncommon,w,Owned,Non-foil,false,,,"","",24253
"Enlightened Tutor",1,"Instant",W,"mir","14",uncommon,w,Owned,Non-foil,false,,,"","",6947
"Mana Tithe",1,"Instant",W,"mb1","171",common,w,Owned,Non-foil,false,,,"","",
"Path to Exile",1,"Instant",W,"con","15",uncommon,w,Owned,Non-foil,false,,,"","",31733
"Swords to Plowshares",1,"Instant",W,"leb","41",uncommon,w,Owned,Non-foil,false,,,"","",
"Disenchant",2,"Instant",W,"lea","18",common,w,Owned,Non-foil,false,,,"","",
"Settle the Wreckage",4,"Instant",W,"pxln","34s",rare,w,Owned,Non-foil,false,,,"","",
"Oust",1,"Sorcery",W,"roe","40",uncommon,w,Owned,Non-foil,false,,,"","",36682
"Balance",2,"Sorcery",W,"2ed","3",rare,w,Owned,Non-foil,false,,,"","",
"Council's Judgment",3,"Sorcery",W,"cns","16",rare,w,Owned,Non-foil,false,,,"","",
"Lingering Souls",3,"Sorcery",W,"ddk","24",uncommon,m,Owned,Non-foil,false,,,"","",48145
"Armageddon",4,"Sorcery",W,"4ed","5",rare,w,Owned,Non-foil,false,,,"","",
"Ravages of War",4,"Sorcery",W,"j15","4",rare,w,Not Owned,Non-foil,false,,,"","",
"Wrath of God",4,"Sorcery",W,"3ed","46",rare,w,Owned,Non-foil,false,,,"","",
"Mox Pearl",0,"Artifact",,"2ed","264",rare,w,Owned,Non-foil,false,,,"","",
"Land Tax",1,"Enchantment",W,"4ed","34",rare,w,Owned,Non-foil,false,,,"","",
"Legion's Landing",1,"Enchantment",W,"xln","22",rare,w,Owned,Foil,false,,,"","",65054
"Suppression Field",2,"Enchantment",W,"rav","31",uncommon,w,Owned,Non-foil,false,,,"","",23026
"Banishing Light",3,"Enchantment",W,"jou","5",uncommon,w,Owned,Non-foil,false,,,"","",52214
"History of Benalia",3,"Enchantment",W,"dom","21",mythic,w,Not Owned,Non-foil,false,,,"","",67507
"Oblivion Ring",3,"Enchantment",W,"lrw","34",common,w,Owned,Non-foil,false,,,"","",28229
"Out of Time",3,"Enchantment",W,"mh2","442",rare,w,Proxied,Non-foil,false,,,"","",
"Faith's Fetters",4,"Enchantment",W,"rav","16",common,w,Owned,Non-foil,false,,,"","",23020
"Elspeth Conquers Death",5,"Enchantment",W,"plist","305",rare,w,Not Owned,Non-foil,false,,,"","",
"Spirit of the Labyrinth",2,"Enchantment,Creature",W,"bng","27",rare,w,Owned,Non-foil,false,,,"","",51769
"Porcelain Legionnaire",3,"Artifact,Creature",W,"nph","19",common,w,Owned,Foil,false,,,"","",39834
"Baral, Chief of Compliance",2,"Creature",U,"aer","28",rare,u,Owned,Non-foil,false,,,"","",62653
"Jace, Vryn's Prodigy",2,"Creature",U,"ori","60",mythic,u,Owned,Non-foil,false,,,"","",57880
"Phantasmal Image",2,"Creature",U,"m12","72",rare,u,Owned,Non-foil,false,,,"","",41369
"Snapcaster Mage",2,"Creature",U,"isd","78",rare,u,Owned,Non-foil,false,,,"","",42512
"Thassa's Oracle",2,"Creature",U,"pthb","73p",rare,u,Owned,Non-foil,false,,,"","",
"Brazen Borrower",3,"Creature",U,"eld","39",mythic,u,Not Owned,Non-foil,false,,,"","",78180
"Nimble Obstructionist",3,"Creature",U,"akr","71",rare,u,Owned,Non-foil,false,,,"","",
"Pestermite",3,"Creature",U,"lrw","78",common,u,Owned,Non-foil,false,,,"","",28241
"Spellseeker",3,"Creature",U,"bbd","41",rare,u,Owned,Non-foil,false,,,"","",68810
"Trinket Mage",3,"Creature",U,"5dn","39",common,u,Owned,Non-foil,false,,,"","",20718
"Vendilion Clique",3,"Creature",U,"a25","76",mythic,u,Owned,Non-foil,false,,,"","",67066
"Glen Elendra Archmage",4,"Creature",U,"eve","22",rare,u,Owned,Non-foil,false,,,"","",30226
"Sower of Temptation",4,"Creature",U,"bbd","131",rare,u,Owned,Non-foil,false,,,"","",
"Subtlety",4,"Creature",U,"mh2","67",mythic,u,Proxied,Non-foil,false,,,"","",90507
"Urza, Lord High Artificer",4,"Creature",U,"h1r","11",mythic,u,Owned,Non-foil,false,,,"","",
"Venser, Shaper Savant",4,"Creature",U,"fut","46",rare,u,Owned,Non-foil,false,,,"","",26594
"Mulldrifter",5,"Creature",U,"c14","118",common,u,Owned,Non-foil,false,,,"","",54683
"Riftwing Cloudskate",5,"Creature",U,"dd2","15",uncommon,u,Owned,Non-foil,false,,,"","",31637
"Consecrated Sphinx",6,"Creature",U,"ima","47",mythic,u,Owned,Non-foil,false,,,"","",65973
"Murktide Regent",7,"Creature",U,"mh2","52",mythic,u,Proxied,Non-foil,false,,,"","",90473
"Palinchron",7,"Creature",U,"ulg","38",rare,u,Owned,Non-foil,false,,,"","",12469
"Jace Beleren",3,"Planeswalker",U,"dd2","1",mythic,u,Owned,Non-foil,false,,,"","",31564
"Jace, the Mind Sculptor",4,"Planeswalker",U,"2xm","56",mythic,u,Owned,Non-foil,false,,,"","",82146
"Ancestral Recall",1,"Instant",U,"2ed","48",rare,u,Owned,Non-foil,false,,,"","",
"Brainstorm",1,"Instant",U,"2xm","44",common,u,Owned,Non-foil,false,,,"","",82122
"Mystical Tutor",1,"Instant",U,"6ed","83",uncommon,u,Owned,Non-foil,false,,,"","",
"Opt",1,"Instant",U,"dom","60",common,u,Owned,Non-foil,false,,,"","",67585
"Spell Pierce",1,"Instant",U,"mm3","51",common,u,Owned,Non-foil,false,,,"","",63191
"Brain Freeze",2,"Instant",U,"plist","46",uncommon,u,Owned,Non-foil,false,,,"","",
"Counterspell",2,"Instant",U,"2ed","55",uncommon,u,Owned,Non-foil,false,,,"","",
"Cyclonic Rift",2,"Instant",U,"2xm","47",rare,u,Owned,Non-foil,false,,,"","",82128
"Daze",2,"Instant",U,"dd2","23",common,u,Owned,Non-foil,false,,,"","",31580
"Mana Drain",2,"Instant",U,"cmr","80",mythic,u,Owned,Non-foil,false,,,"","",84942
"Mana Leak",2,"Instant",U,"8ed","89",common,u,Owned,Non-foil,false,,,"","",19029
"Remand",2,"Instant",U,"ddm","26",uncommon,u,Owned,Non-foil,false,,,"","",52505
"Cryptic Command",4,"Instant",U,"ima","48",rare,u,Owned,Non-foil,false,,,"","",65975
"Fact or Fiction",4,"Instant",U,"c15","94",uncommon,u,Owned,Non-foil,false,,,"","",
"Turnabout",4,"Instant",U,"pidw","9",rare,u,Owned,Non-foil,false,,,"","",
"Far // Away",5,"Instant",U,"dgm","127",uncommon,m,Owned,Non-foil,false,,,"","",48520
"Force of Will",5,"Instant",U,"2xm","51",mythic,u,Proxied,Non-foil,false,,,"","",82136
"Dig Through Time",8,"Instant",U,"c21","119",rare,u,Owned,Non-foil,false,,,"","",89339
"Inevitable Betrayal",0,"Sorcery",U,"mh2","47",rare,u,Proxied,Non-foil,false,,,"","",90463
"Gitaxian Probe",1,"Sorcery",U,"f12","12",rare,u,Owned,Non-foil,false,,,"","",
"Ponder",1,"Sorcery",U,"c18","96",common,u,Owned,Non-foil,false,,,"","",
"Preordain",1,"Sorcery",U,"c15","101",common,u,Owned,Non-foil,false,,,"","",
"Serum Visions",1,"Sorcery",U,"5dn","36",common,u,Owned,Non-foil,false,,,"","",20956
"Time Walk",2,"Sorcery",U,"2ed","84",rare,u,Owned,Non-foil,false,,,"","",
"Compulsive Research",3,"Sorcery",U,"c14","102",common,u,Owned,Non-foil,false,,,"","",55266
"Show and Tell",3,"Sorcery",U,"cn2","121",mythic,u,Owned,Non-foil,false,,,"","",
"Tinker",3,"Sorcery",U,"mb1","527",uncommon,u,Owned,Non-foil,false,,,"","",
"Time Warp",5,"Sorcery",U,"e02","12",mythic,u,Owned,Non-foil,false,,,"","",
"Upheaval",6,"Sorcery",U,"mh2","270",rare,u,Owned,Non-foil,false,,,"","",90963
"Treasure Cruise",8,"Sorcery",U,"c16","101",common,u,Owned,Non-foil,false,,,"","",
"Mox Sapphire",0,"Artifact",,"2ed","266",rare,u,Owned,Non-foil,false,,,"","",
"Dress Down",2,"Enchantment",U,"mh2","39",rare,u,Proxied,Non-foil,false,,,"","",90447
"Search for Azcanta",2,"Enchantment",U,"pxln","74s",rare,u,Owned,Non-foil,false,,,"","",
"Control Magic",4,"Enchantment",U,"2ed","53",uncommon,u,Owned,Non-foil,false,,,"","",
"Opposition",4,"Enchantment",U,"7ed","92",rare,u,Owned,Non-foil,false,,,"","",15724
"Future Sight",5,"Enchantment",U,"ddm","33",rare,u,Owned,Non-foil,false,,,"","",52437
"Treachery",5,"Enchantment",U,"uds","50",rare,u,Owned,Non-foil,false,,,"","",13039
"Shark Typhoon",6,"Enchantment",U,"iko","67",rare,u,Owned,Non-foil,false,,,"","",80143
"Phyrexian Metamorph",4,"Artifact,Creature",U,"2xm","61",rare,u,Owned,Non-foil,false,,,"","",82156
"Torrential Gearhulk",6,"Artifact,Creature",U,"kld","67",mythic,u,Owned,Non-foil,false,,,"","",61917
"Inkwell Leviathan",9,"Artifact,Creature",U,"2xm","55",rare,u,Owned,Non-foil,false,,,"","",82144
"Carrion Feeder",1,"Creature",B,"dde","2",common,b,Owned,Non-foil,false,,,"","",35501
"Putrid Imp",1,"Creature",B,"pd3","1",common,b,Owned,Non-foil,false,,,"","",43129
"Dark Confidant",2,"Creature",B,"2xm","81",mythic,b,Owned,Non-foil,false,,,"","",82196
"Dauthi Voidwalker",2,"Creature",B,"mh2","81",rare,b,Proxied,Non-foil,false,,,"","",90535
"Oona's Prowler",2,"Creature",B,"lrw","133",rare,b,Owned,Non-foil,false,,,"","",28739
"Pack Rat",2,"Creature",B,"ha2","8",rare,b,Owned,Non-foil,false,,,"","",
"Tourach, Dread Cantor",2,"Creature",B,"mh2","102",mythic,b,Proxied,Non-foil,false,,,"","",90577
"Vampire Hexmage",2,"Creature",B,"2xm","112",uncommon,b,Owned,Non-foil,false,,,"","",82258
"Bone Shredder",3,"Creature",B,"dde","5",uncommon,b,Owned,Non-foil,false,,,"","",35401
"Midnight Reaper",3,"Creature",B,"grn","77",rare,b,Owned,Non-foil,false,,,"","",69527
"Murderous Rider",3,"Creature",B,"eld","97",rare,b,Owned,Non-foil,false,,,"","",78308
"Nighthawk Scavenger",3,"Creature",B,"pznr","115p",rare,b,Owned,Non-foil,false,,,"","",
"Ophiomancer",3,"Creature",B,"c13","84",rare,b,Owned,Non-foil,false,,,"","",51344
"Plaguecrafter",3,"Creature",B,"c19","126",uncommon,b,Owned,Non-foil,false,,,"","",77366
"Rotting Regisaur",3,"Creature",B,"m20","111",rare,b,Owned,Non-foil,false,,,"","",73121
"Vampire Nighthawk",3,"Creature",B,"c13","97",uncommon,b,Owned,Non-foil,false,,,"","",51034
"Woe Strider",3,"Creature",B,"ajmp","123",rare,b,Owned,Non-foil,false,,,"","",
"Braids, Cabal Minion",4,"Creature",B,"ema","82",rare,b,Owned,Non-foil,false,,,"","",60689
"Gonti, Lord of Luxury",4,"Creature",B,"jmp","240",rare,b,Owned,Non-foil,false,,,"","",
"Grief",4,"Creature",B,"mh2","87",mythic,b,Proxied,Non-foil,false,,,"","",90547
"Juzám Djinn",4,"Creature",B,"arn","29",rare,b,Not Owned,Non-foil,false,,,"","",
"Ravenous Chupacabra",4,"Creature",B,"a25","104",uncommon,b,Owned,Non-foil,false,,,"","",67122
"Yawgmoth, Thran Physician",4,"Creature",B,"mh1","116",mythic,b,Owned,Non-foil,false,,,"","",72604
"Shriekmaw",5,"Creature",B,"arc","24",uncommon,b,Owned,Non-foil,false,,,"","",
"Grave Titan",6,"Creature",B,"c14","145",mythic,b,Owned,Non-foil,false,,,"","",54863
"Tasigur, the Golden Fang",6,"Creature",B,"frf","87",rare,m,Owned,Non-foil,false,,,"","",55338
"Sheoldred, Whispering One",7,"Creature",B,"ha5","10",mythic,b,Owned,Non-foil,false,,,"","",
"Archon of Cruelty",8,"Creature",B,"mh2","75",mythic,b,Proxied,Non-foil,false,,,"","",90523
"Griselbrand",8,"Creature",B,"avr","106",mythic,b,Owned,Non-foil,false,,,"","",44125
"Liliana of the Veil",3,"Planeswalker",B,"isd","105",mythic,b,Owned,Non-foil,false,,,"","",42616
"Liliana, the Last Hope",3,"Planeswalker",B,"emn","93",mythic,b,Owned,Non-foil,false,,,"","",61152
"Dark Ritual",1,"Instant",B,"2ed","99",common,b,Owned,Non-foil,false,,,"","",
"Fatal Push",1,"Instant",B,"2xm","93",uncommon,b,Owned,Non-foil,false,,,"","",82220
"Vampiric Tutor",1,"Instant",B,"6ed","161",rare,b,Owned,Non-foil,false,,,"","",
"Cabal Ritual",2,"Instant",B,"tor","51",common,b,Owned,Non-foil,false,,,"","",17191
"Heartless Act",2,"Instant",B,"iko","91",uncommon,b,Owned,Non-foil,false,,,"","",80191
"Liliana's Triumph",2,"Instant",B,"prm","72221",rare,b,Owned,Non-foil,false,,,"","",72221
"Shallow Grave",2,"Instant",B,"mir","141",rare,b,Owned,Non-foil,false,,,"","",7297
"Sudden Edict",2,"Instant",B,"mh2","100",uncommon,b,Proxied,Non-foil,false,,,"","",90573
"Dismember",3,"Instant",B,"f12","4",rare,b,Owned,Non-foil,false,,,"","",
"Hero's Downfall",3,"Instant",B,"cp2","2",rare,b,Owned,Non-foil,false,,,"","",
"Murder",3,"Instant",B,"a25","98",common,b,Owned,Non-foil,false,,,"","",67110
"Makeshift Mannequin",4,"Instant",B,"arc","20",uncommon,b,Owned,Non-foil,false,,,"","",
"Profane Tutor",0,"Sorcery",B,"mh2","97",rare,b,Proxied,Non-foil,false,,,"","",90567
"Duress",1,"Sorcery",B,"7ed","131",common,b,Owned,Non-foil,false,,,"","",15462
"Imperial Seal",1,"Sorcery",B,"j16","6",rare,b,Proxied,Non-foil,false,,,"","",
"Inquisition of Kozilek",1,"Sorcery",B,"cn2","140",rare,b,Owned,Non-foil,false,,,"","",
"Mind Twist",1,"Sorcery",B,"2ed","116",rare,b,Owned,Non-foil,false,,,"","",
"Thoughtseize",1,"Sorcery",B,"2xm","109",rare,b,Owned,Non-foil,false,,,"","",82252
"Collective Brutality",2,"Sorcery",B,"emn","85",rare,b,Owned,Non-foil,false,,,"","",61144
"Damn",2,"Sorcery",B,"mh2","80",rare,m,Proxied,Non-foil,false,,,"","",90533
"Demonic Tutor",2,"Sorcery",B,"2ed","105",uncommon,b,Owned,Non-foil,false,,,"","",
"Exhume",2,"Sorcery",B,"brb","24",common,b,Owned,Non-foil,false,,,"","",
"Hymn to Tourach",2,"Sorcery",B,"ath","23",common,b,Owned,Non-foil,false,,,"","",
"Night's Whisper",2,"Sorcery",B,"5dn","55",uncommon,b,Owned,Non-foil,false,,,"","",20816
"Persist",2,"Sorcery",B,"mh2","96",rare,b,Proxied,Non-foil,false,,,"","",90565
"Toxic Deluge",3,"Sorcery",B,"2xm","110",rare,b,Owned,Non-foil,false,,,"","",82254
"Yawgmoth's Will",3,"Sorcery",B,"g07","3",rare,b,Owned,Non-foil,false,,,"","",
"Damnation",4,"Sorcery",B,"j15","5",rare,b,Owned,Non-foil,false,,,"","",
"Languish",4,"Sorcery",B,"c16","114",rare,b,Owned,Non-foil,false,,,"","",
"Tendrils of Agony",4,"Sorcery",B,"f08","4",rare,b,Owned,Non-foil,false,,,"","",
"Living Death",5,"Sorcery",B,"a25","96",rare,b,Owned,Non-foil,false,,,"","",67106
"Unburial Rites",5,"Sorcery",B,"c20","139",uncommon,m,Owned,Non-foil,false,,,"","",
"Mox Jet",0,"Artifact",,"2ed","263",rare,b,Owned,Non-foil,false,,,"","",
"Nihil Spellbomb",1,"Artifact",,"a25","226",common,b,Owned,Non-foil,false,,,"","",67366
"Wishclaw Talisman",2,"Artifact",B,"eld","110",rare,b,Owned,Non-foil,false,,,"","",78342
"Bolas's Citadel",6,"Artifact",B,"prm","72317",rare,b,Owned,Non-foil,false,,,"","",72317
"Animate Dead",2,"Enchantment",B,"2ed","93",uncommon,b,Owned,Non-foil,false,,,"","",
"Necromancy",3,"Enchantment",B,"plist","107",uncommon,b,Owned,Non-foil,false,,,"","",
"Phyrexian Arena",3,"Enchantment",B,"8ed","152",rare,b,Owned,Non-foil,false,,,"","",19577
"Recurring Nightmare",3,"Enchantment",B,"exo","72",rare,b,Owned,Non-foil,false,,,"","",10583
"Yawgmoth's Bargain",6,"Enchantment",B,"uds","75",rare,b,Owned,Non-foil,false,,,"","",12853
"Bitterblossom",2,"Tribal,Enchantment",B,"g11","1",rare,b,Owned,Non-foil,false,,,"","",
"Goblin Guide",1,"Creature",R,"2xm","127",rare,r,Owned,Non-foil,false,,,"","",82288
"Goblin Welder",1,"Creature",R,"c14","177",rare,r,Owned,Non-foil,false,,,"","",54727
"Grim Lavamancer",1,"Creature",R,"2xm","129",rare,r,Owned,Non-foil,false,,,"","",82292
"Legion Loyalist",1,"Creature",R,"gk1","82",rare,r,Owned,Non-foil,false,,,"","",
"Monastery Swiftspear",1,"Creature",R,"ima","140",uncommon,r,Owned,Non-foil,false,,,"","",66159
"Orcish Lumberjack",1,"Creature",R,"cst","210",common,m,Owned,Non-foil,false,,,"","",
"Ragavan, Nimble Pilferer",1,"Creature",R,"mh2","138",mythic,r,Proxied,Non-foil,false,,,"","",90653
"Soul-Scar Mage",1,"Creature",R,"akh","148",rare,r,Owned,Non-foil,false,,,"","",63898
"Zurgo Bellstriker",1,"Creature",R,"dtk","169",rare,r,Owned,Non-foil,false,,,"","",56050
"Abbot of Keral Keep",2,"Creature",R,"ori","127",rare,r,Owned,Non-foil,false,,,"","",58042
"Runaway Steam-Kin",2,"Creature",R,"grn","115",rare,r,Owned,Non-foil,false,,,"","",69603
"Young Pyromancer",2,"Creature",R,"dds","20",uncommon,r,Owned,Non-foil,false,,,"","",
"Birgi, God of Storytelling",3,"Creature",R,"khm","123",rare,r,Owned,Non-foil,false,,,"","",87581
"Bonecrusher Giant",3,"Creature",R,"eld","115",rare,r,Owned,Non-foil,false,,,"","",78352
"Combat Celebrant",3,"Creature",R,"akh","125",mythic,r,Owned,Non-foil,false,,,"","",63852
"Goblin Rabblemaster",3,"Creature",R,"ddt","46",rare,r,Owned,Non-foil,false,,,"","",
"Imperial Recruiter",3,"Creature",R,"2xm","131",mythic,r,Owned,Non-foil,false,,,"","",82296
"Legion Warboss",3,"Creature",R,"grn","109",rare,r,Owned,Non-foil,false,,,"","",69591
"Seasoned Pyromancer",3,"Creature",R,"mh1","145",mythic,r,Owned,Non-foil,false,,,"","",72662
"Avalanche Riders",4,"Creature",R,"f04","9",rare,r,Owned,Non-foil,false,,,"","",
"Flametongue Kavu",4,"Creature",R,"c14","176",uncommon,r,Owned,Non-foil,false,,,"","",54901
"Hazoret the Fervent",4,"Creature",R,"akh","136",mythic,r,Owned,Non-foil,false,,,"","",63874
"Hellrider",4,"Creature",R,"ddk","52",rare,r,Owned,Non-foil,false,,,"","",48123
"Pia and Kiran Nalaar",4,"Creature",R,"ddu","47",rare,r,Owned,Non-foil,false,,,"","",
"Glorybringer",5,"Creature",R,"akh","134",rare,r,Owned,Non-foil,false,,,"","",63870
"Goblin Dark-Dwellers",5,"Creature",R,"c20","153",rare,r,Owned,Non-foil,false,,,"","",
"Goldspan Dragon",5,"Creature",R,"khm","139",mythic,r,Owned,Non-foil,false,,,"","",87613
"Kiki-Jiki, Mirror Breaker",5,"Creature",R,"chk","175",rare,r,Owned,Non-foil,false,,,"","",21021
"Siege-Gang Commander",5,"Creature",R,"10e","234",rare,r,Owned,Non-foil,false,,,"","",27550
"Thundermaw Hellkite",5,"Creature",R,"ima","149",mythic,r,Not Owned,Non-foil,false,,,"","",66177
"Zealous Conscripts",5,"Creature",R,"avr","166",rare,r,Owned,Non-foil,false,,,"","",44033
"Inferno Titan",6,"Creature",R,"c13","114",mythic,r,Owned,Non-foil,false,,,"","",51086
"Greater Gargadon",10,"Creature",R,"mb1","968",rare,r,Owned,Non-foil,false,,,"","",
"Chandra, Pyromaster",4,"Planeswalker",R,"akr","146",mythic,r,Owned,Non-foil,false,,,"","",
"Daretti, Scrap Savant",4,"Planeswalker",R,"c14","33",mythic,r,Owned,Non-foil,false,,,"","",55115
"Koth of the Hammer",4,"Planeswalker",R,"ddi","44",mythic,r,Owned,Non-foil,false,,,"","",43752
"Lightning Bolt",1,"Instant",R,"3ed","162",common,r,Owned,Non-foil,false,,,"","",
"Abrade",2,"Instant",R,"2xm","114",common,r,Owned,Non-foil,false,,,"","",82262
"Ancient Grudge",2,"Instant",R,"f12","5",rare,m,Owned,Non-foil,false,,,"","",
"Incinerate",2,"Instant",R,"10e","213",common,r,Owned,Non-foil,false,,,"","",27056
"Punishing Fire",2,"Instant",R,"cmd","131",uncommon,r,Owned,Non-foil,false,,,"","",40482
"Pyretic Ritual",2,"Instant",R,"fmb1","57",common,r,Owned,Non-foil,false,,,"","",
"Char",3,"Instant",R,"gk1","28",rare,r,Owned,Non-foil,false,,,"","",
"Seething Song",3,"Instant",R,"9ed","216",common,r,Owned,Non-foil,false,,,"","",22807
"Wear // Tear",3,"Instant",R,"cmr","456",uncommon,m,Owned,Non-foil,false,,,"","",85730
"Fireblast",6,"Instant",R,"dd2","55",common,r,Owned,Non-foil,false,,,"","",31524
"Burn from Within",1,"Sorcery",R,"psoi","148s",rare,r,Owned,Non-foil,false,,,"","",
"Chain Lightning",1,"Sorcery",R,"bbd","171",uncommon,r,Owned,Non-foil,false,,,"","",
"Faithless Looting",1,"Sorcery",R,"c14","175",common,r,Owned,Non-foil,false,,,"","",54985
"Firebolt",1,"Sorcery",R,"dd2","49",common,r,Owned,Non-foil,false,,,"","",31590
"Flame Slash",1,"Sorcery",R,"cn2","157",common,r,Owned,Non-foil,false,,,"","",
"Flame Rift",2,"Sorcery",R,"mh2","278",uncommon,r,Proxied,Non-foil,false,,,"","",90979
"Mizzium Mortars",2,"Sorcery",R,"c15","163",rare,r,Owned,Non-foil,false,,,"","",
"Pyroclasm",2,"Sorcery",R,"10e","222",uncommon,r,Owned,Non-foil,false,,,"","",27560
"Light Up the Stage",3,"Sorcery",R,"plist","144",uncommon,r,Owned,Non-foil,false,,,"","",
"Wheel of Fortune",3,"Sorcery",R,"2ed","184",rare,r,Owned,Non-foil,false,,,"","",
"Empty the Warrens",4,"Sorcery",R,"dds","15",common,r,Owned,Non-foil,false,,,"","",
"Fiery Confluence",4,"Sorcery",R,"c15","26",rare,r,Owned,Non-foil,false,,,"","",
"Past in Flames",4,"Sorcery",R,"c16","131",mythic,r,Owned,Non-foil,false,,,"","",
"Burning of Xinye",6,"Sorcery",R,"me3","89",rare,r,Owned,Non-foil,false,,,"","",33866
"Wildfire",6,"Sorcery",R,"7ed","228",rare,r,Owned,Non-foil,false,,,"","",15980
"Mox Ruby",0,"Artifact",,"2ed","265",rare,r,Owned,Non-foil,false,,,"","",
"Flame Blitz",1,"Enchantment",R,"mh2","124",uncommon,r,Proxied,Non-foil,false,,,"","",90625
"Mana Flare",3,"Enchantment",R,"2ed","163",rare,r,Owned,Non-foil,false,,,"","",
"Sulfuric Vortex",3,"Enchantment",R,"cns","152",rare,r,Owned,Non-foil,false,,,"","",
"Sneak Attack",4,"Enchantment",R,"2xm","145",mythic,r,Owned,Non-foil,false,,,"","",82324
"Splinter Twin",4,"Enchantment",R,"mm2","129",rare,r,Owned,Non-foil,false,,,"","",57186
"Bomat Courier",1,"Artifact,Creature",,"kld","199",rare,r,Owned,Non-foil,false,,,"","",62075
"Eidolon of the Great Revel",2,"Enchantment,Creature",R,"a25","128",rare,r,Owned,Non-foil,false,,,"","",67170
"Avacyn's Pilgrim",1,"Creature",G,"f12","8",rare,m,Owned,Non-foil,false,,,"","",
"Birds of Paradise",1,"Creature",G,"10e","252",rare,g,Owned,Non-foil,false,,,"","",27715
"Elves of Deep Shadow",1,"Creature",G,"ddj","47",common,m,Owned,Non-foil,false,,,"","",46150
"Elvish Mystic",1,"Creature",G,"c14","191",common,g,Owned,Non-foil,false,,,"","",55053
"Elvish Reclaimer",1,"Creature",G,"m20","169",rare,g,Owned,Non-foil,false,,,"","",73237
"Fyndhorn Elves",1,"Creature",G,"cmr","228",common,g,Owned,Non-foil,false,,,"","",85238
"Gilded Goose",1,"Creature",G,"eld","160",rare,g,Owned,Non-foil,false,,,"","",78458
"Hexdrinker",1,"Creature",G,"mh1","168",mythic,g,Owned,Non-foil,false,,,"","",72708
"Ignoble Hierarch",1,"Creature",G,"mh2","166",rare,m,Proxied,Non-foil,false,,,"","",90709
"Joraga Treespeaker",1,"Creature",G,"roe","190",uncommon,g,Owned,Non-foil,false,,,"","",36408
"Llanowar Elves",1,"Creature",G,"10e","274",common,g,Owned,Non-foil,false,,,"","",27697
"Noble Hierarch",1,"Creature",G,"2xm","177",rare,m,Owned,Non-foil,false,,,"","",82388
"Bloom Tender",2,"Creature",G,"eve","66",rare,g,Owned,Non-foil,false,,,"","",30260
"Devoted Druid",2,"Creature",G,"shm","110",common,g,Owned,Non-foil,false,,,"","",29305
"Fauna Shaman",2,"Creature",G,"ha1","14",rare,g,Owned,Non-foil,false,,,"","",
"Incubation Druid",2,"Creature",G,"c21","195",rare,g,Owned,Non-foil,false,,,"","",89491
"Lotus Cobra",2,"Creature",G,"ima","174",rare,g,Owned,Non-foil,false,,,"","",66227
"Rofellos, Llanowar Emissary",2,"Creature",G,"uds","118",rare,g,Owned,Non-foil,false,,,"","",12913
"Sakura-Tribe Elder",2,"Creature",G,"arc","68",common,g,Owned,Non-foil,false,,,"","",
"Scavenging Ooze",2,"Creature",G,"c16","166",rare,g,Owned,Non-foil,false,,,"","",
"Sylvan Caryatid",2,"Creature",G,"prm","50120",rare,g,Owned,Non-foil,false,,,"","",50120
"Wall of Blossoms",2,"Creature",G,"c15","211",uncommon,g,Owned,Non-foil,false,,,"","",
"Wall of Roots",2,"Creature",G,"arc","73",common,g,Owned,Non-foil,false,,,"","",
"Azusa, Lost but Seeking",3,"Creature",G,"a25","161",rare,g,Owned,Non-foil,false,,,"","",67236
"Chatterfang, Squirrel General",3,"Creature",G,"mh2","151",mythic,m,Proxied,Non-foil,false,,,"","",90679
"Endurance",3,"Creature",G,"mh2","157",mythic,g,Proxied,Non-foil,false,,,"","",90691
"Eternal Witness",3,"Creature",G,"5dn","86",uncommon,g,Owned,Non-foil,false,,,"","",20856
"Nissa, Vastwood Seer",3,"Creature",G,"ori","189",mythic,g,Owned,Non-foil,false,,,"","",58056
"Ramunap Excavator",3,"Creature",G,"akr","211",rare,g,Owned,Non-foil,false,,,"","",
"Reclamation Sage",3,"Creature",G,"2xm","178",uncommon,g,Owned,Non-foil,false,,,"","",82390
"Selvala, Heart of the Wilds",3,"Creature",G,"cn2","70",mythic,g,Owned,Non-foil,false,,,"","",
"Shaman of Forgotten Ways",3,"Creature",G,"dtk","204",mythic,g,Owned,Non-foil,false,,,"","",56360
"Tireless Tracker",3,"Creature",G,"mb1","1361",rare,g,Owned,Non-foil,false,,,"","",
"Yavimaya Elder",3,"Creature",G,"c18","166",common,g,Owned,Non-foil,false,,,"","",
"Goreclaw, Terror of Qal Sisma",4,"Creature",G,"m19","186",rare,g,Owned,Non-foil,false,,,"","",68533
"Oracle of Mul Daya",4,"Creature",G,"jmp","415",rare,g,Owned,Non-foil,false,,,"","",
"Polukranos, World Eater",4,"Creature",G,"ddl","43",mythic,g,Owned,Non-foil,false,,,"","",49991
"Questing Beast",4,"Creature",G,"eld","171",mythic,g,Owned,Non-foil,false,,,"","",78482
"Acidic Slime",5,"Creature",G,"c13","134",uncommon,g,Owned,Non-foil,false,,,"","",51018
"Biogenic Ooze",5,"Creature",G,"prna","122p",mythic,g,Owned,Non-foil,false,,,"","",
"Elder Gargaroth",5,"Creature",G,"m21","179",mythic,g,Owned,Non-foil,false,,,"","",81585
"Titania, Protector of Argoth",5,"Creature",G,"c14","50",mythic,g,Owned,Non-foil,false,,,"","",55119
"Primeval Titan",6,"Creature",G,"ima","183",mythic,g,Owned,Non-foil,false,,,"","",66245
"Craterhoof Behemoth",8,"Creature",G,"avr","172",mythic,g,Owned,Non-foil,false,,,"","",43921
"Terastodon",8,"Creature",G,"2xm","182",rare,g,Owned,Non-foil,false,,,"","",82398
"Woodfall Primus",8,"Creature",G,"mma","174",rare,g,Owned,Non-foil,false,,,"","",48762
"Garruk Relentless",4,"Planeswalker",G,"isd","181",mythic,m,Owned,Non-foil,false,,,"","",42744
"Garruk Wildspeaker",4,"Planeswalker",G,"cmd","157",mythic,g,Owned,Non-foil,false,,,"","",40492
"Nissa, Who Shakes the World",5,"Planeswalker",G,"ppro","p2020-2",rare,g,Owned,Non-foil,false,,,"","",
"Vivien Reid",5,"Planeswalker",G,"m19","208",mythic,g,Owned,Non-foil,false,,,"","",68577
"Crop Rotation",1,"Instant",G,"2xm","161",uncommon,g,Owned,Non-foil,false,,,"","",82356
"Nature's Claim",1,"Instant",G,"cns","171",common,g,Owned,Non-foil,false,,,"","",
"Veil of Summer",1,"Instant",G,"m20","198",uncommon,g,Proxied,Non-foil,false,,,"","",73295
"Naturalize",2,"Instant",G,"10e","282",common,g,Owned,Non-foil,false,,,"","",27558
"Gaea's Will",0,"Sorcery",G,"mh2","162",rare,g,Proxied,Non-foil,false,,,"","",90701
"Green Sun's Zenith",1,"Sorcery",G,"ema","169",rare,g,Owned,Non-foil,false,,,"","",60681
"Channel",2,"Sorcery",G,"2ed","189",uncommon,g,Owned,Non-foil,false,,,"","",
"Chatterstorm",2,"Sorcery",G,"mh2","152",common,g,Proxied,Non-foil,false,,,"","",90681
"Farseek",2,"Sorcery",G,"c16","149",common,g,Owned,Non-foil,false,,,"","",
"Finale of Devastation",2,"Sorcery",G,"pwar","160p",mythic,g,Owned,Non-foil,false,,,"","",
"Life from the Loam",2,"Sorcery",G,"ddj","69",rare,g,Owned,Non-foil,false,,,"","",46164
"Rampant Growth",2,"Sorcery",G,"10e","288",common,g,Owned,Non-foil,false,,,"","",27018
"Regrowth",2,"Sorcery",G,"2ed","215",uncommon,g,Owned,Non-foil,false,,,"","",
"Cultivate",3,"Sorcery",G,"a25","165",common,g,Owned,Non-foil,false,,,"","",67244
"Search for Tomorrow",3,"Sorcery",G,"cmr","436",common,g,Owned,Non-foil,false,,,"","",85682
"Harmonize",4,"Sorcery",G,"arc","59",uncommon,g,Owned,Non-foil,false,,,"","",
"Natural Order",4,"Sorcery",G,"ema","177",mythic,g,Owned,Non-foil,false,,,"","",60547
"Primal Command",5,"Sorcery",G,"arc","66",rare,g,Owned,Non-foil,false,,,"","",
"Mox Emerald",0,"Artifact",,"2ed","262",rare,g,Owned,Non-foil,false,,,"","",
"Birthing Pod",4,"Artifact",G,"j20","7",rare,g,Owned,Non-foil,false,,,"","",
"Exploration",1,"Enchantment",G,"2xm","167",rare,g,Owned,Non-foil,false,,,"","",82368
"Fastbond",1,"Enchantment",G,"2ed","193",rare,g,Owned,Non-foil,false,,,"","",
"Oath of Druids",2,"Enchantment",G,"c16","159",rare,g,Owned,Non-foil,false,,,"","",
"Sylvan Library",2,"Enchantment",G,"4bb","273",rare,g,Owned,Non-foil,false,,,"","",
"Heartbeat of Spring",3,"Enchantment",G,"2xm","171",rare,g,Owned,Non-foil,false,,,"","",82376
"Courser of Kruphix",3,"Enchantment,Creature",G,"a25","164",rare,g,Owned,Non-foil,false,,,"","",67242
"Dryad of the Ilysian Grove",3,"Enchantment,Creature",G,"pthb","169p",rare,g,Owned,Non-foil,false,,,"","",
"Azorius Signet",2,"Artifact",,"arc","103",common,m,Owned,Non-foil,false,,,"","",
"Geist of Saint Traft",3,"Creature",UW,"2xm","197",mythic,m,Owned,Non-foil,false,,,"","",82428
"Teferi, Time Raveler",3,"Planeswalker",UW,"prm","72233",rare,m,Owned,Non-foil,false,,,"","",72233
"Teferi, Hero of Dominaria",5,"Planeswalker",UW,"dom","207",mythic,m,Not Owned,Non-foil,false,,,"","",67879
"Yorion, Sky Nomad",5,"Creature",UW,"iko","232",rare,m,Not Owned,Non-foil,false,,,"","",80473
"Baleful Strix",2,"Artifact,Creature",BU,"2xm","191",rare,m,Owned,Non-foil,false,,,"","",82416
"Dimir Signet",2,"Artifact",,"arc","104",common,m,Owned,Non-foil,false,,,"","",
"Ashiok, Nightmare Weaver",3,"Planeswalker",BU,"ths","188",mythic,m,Owned,Non-foil,false,,,"","",50310
"Thief of Sanity",3,"Creature",BU,"grn","205",rare,m,Owned,Non-foil,false,,,"","",69783
"Dreadbore",2,"Sorcery",BR,"e01","83",rare,m,Owned,Non-foil,false,,,"","",
"Rakdos Headliner",2,"Creature",BR,"mh2","210",uncommon,m,Proxied,Non-foil,false,,,"","",90797
"Rakdos Signet",2,"Artifact",,"arc","114",common,m,Owned,Non-foil,false,,,"","",
"Rakdos's Return",2,"Sorcery",BR,"gk2","72",mythic,m,Owned,Non-foil,false,,,"","",
"Terminate",2,"Instant",BR,"arb","46",common,m,Owned,Non-foil,false,,,"","",32234
"Daretti, Ingenious Iconoclast",3,"Planeswalker",BR,"cn2","74",mythic,m,Owned,Non-foil,false,,,"","",
"Kolaghan's Command",3,"Instant",BR,"dtk","224",rare,m,Owned,Non-foil,false,,,"","",56082
"Goblin Anarchomancer",2,"Creature",GR,"mh2","200",common,m,Proxied,Non-foil,false,,,"","",90777
"Gruul Signet",2,"Artifact",,"arc","108",common,m,Owned,Non-foil,false,,,"","",
"Manamorphose",2,"Instant",GR,"2xm","208",uncommon,m,Owned,Non-foil,false,,,"","",82450
"Territorial Kavu",2,"Creature",GR,"mh2","216",rare,m,Proxied,Non-foil,false,,,"","",90813
"Wrenn and Six",2,"Planeswalker",GR,"mh1","217",mythic,m,Owned,Non-foil,false,,,"","",72806
"Decimate",4,"Sorcery",GR,"c16","193",rare,m,Owned,Non-foil,false,,,"","",
"Huntmaster of the Fells",4,"Creature",GR,"dka","140",mythic,m,Owned,Non-foil,false,,,"","",43463
"Dragonlord Atarka",7,"Creature",GR,"dtk","216",mythic,m,Owned,Non-foil,false,,,"","",55976
"Selesnya Signet",2,"Artifact",,"c13","257",common,m,Owned,Non-foil,false,,,"","",51268
"Kitchen Finks",3,"Creature",GW,"f09","3",rare,m,Owned,Non-foil,false,,,"","",
"Knight of Autumn",3,"Creature",GW,"grn","183",rare,m,Owned,Non-foil,false,,,"","",69739
"Knight of the Reliquary",3,"Creature",GW,"con","113",rare,m,Owned,Non-foil,false,,,"","",31925
"Mirari's Wake",5,"Enchantment",GW,"c17","181",mythic,m,Owned,Non-foil,false,,,"","",
"Orzhov Signet",2,"Artifact",,"c15","262",common,m,Owned,Non-foil,false,,,"","",
"Tidehollow Sculler",2,"Artifact,Creature",BW,"ala","202",uncommon,m,Owned,Non-foil,false,,,"","",31125
"Vanishing Verse",2,"Instant",BW,"pstx","244p",rare,m,Not Owned,Non-foil,false,,,"","",
"Anguished Unmaking",3,"Instant",BW,"prm","60462",rare,m,Owned,Non-foil,false,,,"","",60462
"Kaya, Orzhov Usurper",3,"Planeswalker",BW,"med","RA8",mythic,m,Owned,Non-foil,false,,,"","",71566
"Vindicate",3,"Sorcery",BW,"a25","219",rare,m,Owned,Non-foil,false,,,"","",67352
"Ashen Rider",8,"Creature",BW,"ths","187",mythic,m,Owned,Non-foil,false,,,"","",50570
"Goblin Electromancer",2,"Creature",RU,"c15","220",common,m,Owned,Non-foil,false,,,"","",
"Izzet Signet",2,"Artifact",,"c15","256",common,m,Owned,Non-foil,false,,,"","",
"Dack Fayden",3,"Planeswalker",RU,"cns","42",mythic,m,Owned,Non-foil,false,,,"","",
"Thousand-Year Storm",6,"Enchantment",RU,"grn","207",mythic,m,Owned,Non-foil,false,,,"","",69787
"Deathrite Shaman",1,"Creature",BG,"ema","215",rare,m,Owned,Non-foil,false,,,"","",60793
"Abrupt Decay",2,"Instant",BG,"gk1","57",rare,m,Owned,Non-foil,false,,,"","",
"Assassin's Trophy",2,"Instant",BG,"grn","152",rare,m,Owned,Non-foil,false,,,"","",69677
"Golgari Signet",2,"Artifact",,"c15","255",common,m,Owned,Non-foil,false,,,"","",
"Squandered Resources",2,"Enchantment",BG,"vis","137",rare,m,Owned,Non-foil,false,,,"","",7729
"Pernicious Deed",3,"Enchantment",BG,"a25","212",rare,m,Owned,Non-foil,false,,,"","",67338
"Putrefy",3,"Instant",BG,"c15","232",uncommon,m,Owned,Non-foil,false,,,"","",
"The Gitrog Monster",5,"Creature",BG,"j21","5",mythic,m,Owned,Non-foil,false,,,"","",
"Casualties of War",6,"Sorcery",BG,"khc","83",rare,m,Owned,Non-foil,false,,,"","",
"Figure of Destiny",1,"Creature",RW,"ddl","3",rare,m,Owned,Non-foil,false,,,"","",49887
"Boros Signet",2,"Artifact",,"c15","247",common,m,Owned,Non-foil,false,,,"","",
"Lightning Helix",2,"Instant",RW,"ddh","23",uncommon,m,Owned,Non-foil,false,,,"","",42182
"Ajani Vengeant",4,"Planeswalker",RW,"ala","154",mythic,m,Owned,Non-foil,false,,,"","",30923
"Nahiri, the Harbinger",4,"Planeswalker",RW,"c20","223",mythic,m,Owned,Non-foil,false,,,"","",
"Coiling Oracle",2,"Creature",GU,"c15","213",common,m,Owned,Non-foil,false,,,"","",
"Hydroid Krasis",2,"Creature",GU,"prna","183p",mythic,m,Not Owned,Non-foil,false,,,"","",
"Neoform",2,"Sorcery",GU,"war","206",uncommon,m,Owned,Non-foil,false,,,"","",72018
"Simic Signet",2,"Artifact",,"c13","258",common,m,Owned,Non-foil,false,,,"","",51116
"Edric, Spymaster of Trest",3,"Creature",GU,"c16","195",rare,m,Owned,Non-foil,false,,,"","",
"Oko, Thief of Crowns",3,"Planeswalker",GU,"eld","197",mythic,m,Owned,Non-foil,false,,,"","",78538
"Prophet of Kruphix",5,"Creature",GU,"cp1","5",rare,m,Owned,Non-foil,false,,,"","",
"Leovold, Emissary of Trest",3,"Creature",BGU,"cn2","77",mythic,m,Owned,Non-foil,false,,,"","",
"Golos, Tireless Pilgrim",5,"Artifact,Creature",,"m20","226",rare,m,Owned,Non-foil,false,,,"","",73351
"Progenitus",10,"Creature",BGRUW,"con","121",mythic,m,Owned,Non-foil,false,,,"","",31763
"Emrakul, the Aeons Torn",15,"Creature",,"mm2","3",mythic,c,Owned,Non-foil,false,,,"","",57184
"Kozilek, Butcher of Truth",10,"Creature",,"mm2","5",mythic,c,Owned,Non-foil,false,,,"","",57200
"Ulamog, the Ceaseless Hunger",10,"Creature",,"bfz","15",mythic,c,Owned,Non-foil,false,,,"","",58301
"Ulamog, the Infinite Gyre",11,"Creature",,"mm2","6",mythic,c,Owned,Non-foil,false,,,"","",57206
"Karn Liberated",7,"Planeswalker",,"2xm","1",mythic,c,Owned,Non-foil,false,,,"","",82036
"Ugin, the Spirit Dragon",8,"Planeswalker",,"frf","1",mythic,c,Owned,Non-foil,false,,,"","",55364
"Black Lotus",0,"Artifact",,"2ed","233",rare,c,Owned,Non-foil,false,,,"","",
"Engineered Explosives",0,"Artifact",,"2xm","252",rare,c,Owned,Non-foil,false,,,"","",82538
"Everflowing Chalice",0,"Artifact",,"2xm","254",common,c,Owned,Non-foil,false,,,"","",82542
"Lion's Eye Diamond",0,"Artifact",,"mir","307",rare,c,Proxied,Non-foil,false,,,"","",7103
"Lotus Bloom",0,"Artifact",,"mma","208",rare,c,Owned,Non-foil,false,,,"","",49050
"Lotus Petal",0,"Artifact",,"mb1","1601",common,c,Owned,Non-foil,false,,,"","",
"Mana Crypt",0,"Artifact",,"2xm","270",mythic,c,Owned,Non-foil,false,,,"","",82574
"Mox Diamond",0,"Artifact",,"sth","138",rare,c,Proxied,Non-foil,false,,,"","",10325
"Mana Vault",1,"Artifact",,"2ed","260",rare,c,Owned,Non-foil,false,,,"","",
"Relic of Progenitus",1,"Artifact",,"ala","218",common,c,Owned,Non-foil,false,,,"","",30895
"Sensei's Divining Top",1,"Artifact",,"chk","268",uncommon,c,Owned,Non-foil,false,,,"","",21045
"Skullclamp",1,"Artifact",,"c14","268",uncommon,c,Owned,Non-foil,false,,,"","",55225
"Sol Ring",1,"Artifact",,"2ed","270",uncommon,c,Owned,Non-foil,false,,,"","",
"Cursed Totem",2,"Artifact",,"6ed","278",rare,c,Proxied,Non-foil,false,,,"","",
"Grim Monolith",2,"Artifact",,"prm","61567",rare,c,Owned,Non-foil,false,,,"","",61567
"Scroll Rack",2,"Artifact",,"cm1","16",rare,c,Owned,Non-foil,false,,,"","",
"Shrine of Burning Rage",2,"Artifact",,"nph","153",uncommon,c,Owned,Non-foil,false,,,"","",39810
"Smuggler's Copter",2,"Artifact",,"kld","235",rare,c,Owned,Non-foil,false,,,"","",61797
"Thorn of Amethyst",2,"Artifact",,"lrw","262",rare,c,Owned,Non-foil,false,,,"","",28433
"Treasure Map",2,"Artifact",,"pxln","250s",rare,c,Owned,Non-foil,false,,,"","",
"Umezawa's Jitte",2,"Artifact",,"bok","163",rare,c,Owned,Non-foil,false,,,"","",21603
"Winter Orb",2,"Artifact",,"2ed","276",rare,c,Owned,Non-foil,false,,,"","",
"Basalt Monolith",3,"Artifact",,"2ed","232",uncommon,c,Owned,Non-foil,false,,,"","",
"Chromatic Lantern",3,"Artifact",,"c16","247",rare,c,Owned,Non-foil,false,,,"","",
"Coalition Relic",3,"Artifact",,"a25","223",rare,c,Owned,Non-foil,false,,,"","",67360
"Crucible of Worlds",3,"Artifact",,"10e","319",rare,c,Owned,Non-foil,false,,,"","",27627
"Horn of Greed",3,"Artifact",,"cn2","211",rare,c,Owned,Non-foil,false,,,"","",
"Oblivion Stone",3,"Artifact",,"2xm","279",rare,c,Owned,Non-foil,false,,,"","",82592
"Sword of Fire and Ice",3,"Artifact",,"2xm","297",mythic,c,Owned,Non-foil,false,,,"","",82628
"Sword of Hearth and Home",3,"Artifact",,"mh2","238",mythic,c,Proxied,Non-foil,false,,,"","",90857
"Thran Dynamo",4,"Artifact",,"arc","121",uncommon,c,Owned,Non-foil,false,,,"","",
"Batterskull",5,"Artifact",,"2xm","234",mythic,c,Owned,Non-foil,false,,,"","",82502
"Gilded Lotus",5,"Artifact",,"dom","215",rare,c,Owned,Non-foil,false,,,"","",67895
"Memory Jar",5,"Artifact",,"ulg","129",rare,c,Owned,Non-foil,false,,,"","",12697
"Mindslaver",6,"Artifact",,"fmb1","109",rare,c,Owned,Non-foil,false,,,"","",
"Planar Bridge",6,"Artifact",,"aer","171",mythic,c,Owned,Non-foil,false,,,"","",62917
"Hangarback Walker",0,"Artifact,Creature",,"mps","13",mythic,c,Owned,Non-foil,false,,,"","",62147
"Stonecoil Serpent",0,"Artifact,Creature",,"eld","235",rare,c,Owned,Non-foil,false,,,"","",78616
"Walking Ballista",0,"Artifact,Creature",,"2xm","306",rare,c,Owned,Non-foil,false,,,"","",82646
"Ornithopter of Paradise",2,"Artifact,Creature",,"mh2","232",common,c,Proxied,Non-foil,false,,,"","",90845
"Phyrexian Revoker",2,"Artifact,Creature",,"2xm","282",rare,c,Owned,Non-foil,false,,,"","",82598
"Metalworker",3,"Artifact,Creature",,"prm","46950",rare,c,Owned,Non-foil,false,,,"","",46950
"Lodestone Golem",4,"Artifact,Creature",,"arc","111",rare,c,Owned,Non-foil,false,,,"","",
"Solemn Simulacrum",4,"Artifact,Creature",,"c14","271",rare,c,Owned,Non-foil,false,,,"","",54951
"Wurmcoil Engine",6,"Artifact,Creature",,"2xm","308",mythic,c,Owned,Non-foil,false,,,"","",82650
"Myr Battlesphere",7,"Artifact,Creature",,"2xm","276",rare,c,Owned,Non-foil,false,,,"","",82586
"Blightsteel Colossus",12,"Artifact,Creature",,"2xm","235",mythic,c,Owned,Non-foil,false,,,"","",82504
"Sundering Titan",8,"Artifact,Creature",,"2xm","292",rare,c,Owned,Non-foil,false,,,"","",82618
"Celestial Colonnade",0,"Land",,"prm","43572",rare,l,Owned,Non-foil,false,,,"","",43572
"Hallowed Fountain",0,"Land",,"dis","174",rare,l,Owned,Non-foil,false,,,"","",24001
"Seachrome Coast",0,"Land",,"som","229",rare,l,Owned,Non-foil,false,,,"","",38289
"Tundra",0,"Land",,"2ed","285",rare,l,Owned,Non-foil,false,,,"","",
"Creeping Tar Pit",0,"Land",,"puma","U34",mythic,l,Owned,Non-foil,false,,,"","",70555
"Darkslick Shores",0,"Land",,"som","226",rare,l,Owned,Non-foil,false,,,"","",38291
"Underground Sea",0,"Land",,"2ed","286",rare,l,Owned,Non-foil,false,,,"","",
"Watery Grave",0,"Land",,"exp","7",mythic,l,Owned,Non-foil,false,,,"","",58859
"Badlands",0,"Land",,"2ed","278",rare,l,Owned,Non-foil,false,,,"","",
"Blackcleave Cliffs",0,"Land",,"som","224",rare,l,Owned,Non-foil,false,,,"","",38293
"Blood Crypt",0,"Land",,"dis","171",rare,l,Owned,Non-foil,false,,,"","",24053
"Lavaclaw Reaches",0,"Land",,"puma","U37",mythic,l,Owned,Non-foil,false,,,"","",70567
"Copperline Gorge",0,"Land",,"som","225",rare,l,Owned,Non-foil,false,,,"","",38301
"Grove of the Burnwillows",0,"Land",,"fut","176",rare,l,Owned,Non-foil,false,,,"","",26710
"Raging Ravine",0,"Land",,"puma","U38",mythic,l,Owned,Non-foil,false,,,"","",70575
"Stomping Ground",0,"Land",,"exp","9",mythic,l,Owned,Non-foil,false,,,"","",58863
"Taiga",0,"Land",,"2ed","283",rare,l,Owned,Non-foil,false,,,"","",
"Razorverge Thicket",0,"Land",,"som","228",rare,l,Owned,Non-foil,false,,,"","",38299
"Savannah",0,"Land",,"2ed","281",rare,l,Owned,Non-foil,false,,,"","",
"Stirring Wildwood",0,"Land",,"c17","281",rare,l,Owned,Non-foil,false,,,"","",
"Temple Garden",0,"Land",,"exp","10",mythic,l,Owned,Non-foil,false,,,"","",58865
"Concealed Courtyard",0,"Land",,"kld","245",rare,l,Owned,Non-foil,false,,,"","",61859
"Godless Shrine",0,"Land",,"exp","11",mythic,l,Owned,Non-foil,false,,,"","",58867
"Scrubland",0,"Land",,"2ed","282",rare,l,Owned,Non-foil,false,,,"","",
"Shambling Vent",0,"Land",,"bfz","244",rare,l,Owned,Non-foil,false,,,"","",58531
"Spirebluff Canal",0,"Land",,"kld","249",rare,l,Not Owned,Non-foil,false,,,"","",61851
"Steam Vents",0,"Land",,"exp","12",mythic,l,Owned,Non-foil,false,,,"","",58869
"Volcanic Island",0,"Land",,"2ed","287",rare,l,Owned,Non-foil,false,,,"","",
"Wandering Fumarole",0,"Land",,"ogw","182",rare,l,Owned,Non-foil,false,,,"","",59259
"Bayou",0,"Land",,"2ed","279",rare,l,Owned,Non-foil,false,,,"","",
"Blooming Marsh",0,"Land",,"kld","243",rare,l,Owned,Non-foil,false,,,"","",61849
"Hissing Quagmire",0,"Land",,"ogw","171",rare,l,Owned,Non-foil,false,,,"","",59255
"Overgrown Tomb",0,"Land",,"exp","13",mythic,l,Owned,Non-foil,false,,,"","",58871
"Inspiring Vantage",0,"Land",,"kld","246",rare,l,Owned,Non-foil,false,,,"","",61855
"Needle Spires",0,"Land",,"ogw","175",rare,l,Owned,Non-foil,false,,,"","",59257
"Plateau",0,"Land",,"2ed","280",rare,l,Owned,Non-foil,false,,,"","",
"Sacred Foundry",0,"Land",,"exp","14",mythic,l,Owned,Non-foil,false,,,"","",58873
"Botanical Sanctum",0,"Land",,"kld","244",rare,l,Owned,Non-foil,false,,,"","",61853
"Breeding Pool",0,"Land",,"dis","172",rare,l,Owned,Non-foil,false,,,"","",24029
"Lumbering Falls",0,"Land",,"bfz","239",rare,l,Owned,Non-foil,false,,,"","",58529
"Tropical Island",0,"Land",,"2ed","284",rare,l,Owned,Non-foil,false,,,"","",
"Savai Triome",0,"Land",,"iko","253",rare,l,Proxied,Non-foil,false,,,"","",80515
"Ketria Triome",0,"Land",,"iko","250",rare,l,Proxied,Non-foil,false,,,"","",80509
"Indatha Triome",0,"Land",,"iko","248",rare,l,Proxied,Non-foil,false,,,"","",80505
"Raugrin Triome",0,"Land",,"iko","251",rare,l,Proxied,Non-foil,false,,,"","",80511
"Zagoth Triome",0,"Land",,"iko","259",rare,l,Proxied,Non-foil,false,,,"","",80527
"Academy Ruins",0,"Land",,"2xm","309",rare,l,Owned,Non-foil,false,,,"","",82652
"Ancient Tomb",0,"Land",,"exp","36",mythic,l,Owned,Non-foil,false,,,"","",59689
"Arid Mesa",0,"Land",,"exp","24",mythic,l,Owned,Non-foil,false,,,"","",58855
"Bloodstained Mire",0,"Land",,"exp","18",mythic,l,Owned,Non-foil,false,,,"","",58841
"Bojuka Bog",0,"Land",,"c13","278",common,l,Owned,Non-foil,false,,,"","",51030
"Cabal Coffers",0,"Land",,"f07","10",rare,l,Proxied,Non-foil,false,,,"","",
"City of Brass",0,"Land",,"5ed","413",rare,l,Owned,Non-foil,false,,,"","",
"Dark Depths",0,"Land",,"2xm","314",mythic,l,Owned,Non-foil,false,,,"","",82662
"Field of Ruin",0,"Land",,"mb1","1667",uncommon,l,Owned,Non-foil,false,,,"","",
"Flooded Strand",0,"Land",,"exp","16",mythic,l,Owned,Non-foil,false,,,"","",58839
"Gaea's Cradle",0,"Land",,"jgp","3",rare,l,Owned,Non-foil,false,,,"","",
"Karakas",0,"Land",,"ema","240",mythic,l,Owned,Non-foil,false,,,"","",60771
"Library of Alexandria",0,"Land",,"arn","76",uncommon,l,Owned,Non-foil,false,,,"","",
"Mana Confluence",0,"Land",,"cmr","721",mythic,l,Owned,Non-foil,false,,,"","",
"Marsh Flats",0,"Land",,"exp","21",mythic,l,Owned,Non-foil,false,,,"","",58849
"Maze of Ith",0,"Land",,"2xm","322",rare,l,Not Owned,Non-foil,false,,,"","",82678
"Mishra's Factory",0,"Land",,"2xm","323",uncommon,l,Owned,Non-foil,false,,,"","",82680
"Misty Rainforest",0,"Land",,"exp","25",mythic,l,Owned,Non-foil,false,,,"","",58845
"Mutavault",0,"Land",,"m14","228",rare,l,Owned,Non-foil,false,,,"","",49135
"Polluted Delta",0,"Land",,"exp","17",mythic,l,Owned,Non-foil,false,,,"","",58877
"Rishadan Port",0,"Land",,"a25","246",rare,l,Owned,Non-foil,false,,,"","",67406
"Scalding Tarn",0,"Land",,"exp","22",mythic,l,Owned,Non-foil,false,,,"","",58851
"Shelldock Isle",0,"Land",,"lrw","272",rare,l,Owned,Non-foil,false,,,"","",28707
"Strip Mine",0,"Land",,"4bb","363",uncommon,l,Not Owned,Non-foil,false,,,"","",
"Tolarian Academy",0,"Land",,"usg","330",rare,l,Owned,Non-foil,false,,,"","",11931
"Treetop Village",0,"Land",,"10e","361★",uncommon,l,Owned,Non-foil,false,,,"","",
"Verdant Catacombs",0,"Land",,"exp","23",mythic,l,Owned,Non-foil,false,,,"","",58853
"Wasteland",0,"Land",,"ema","248",rare,l,Owned,Non-foil,false,,,"","",60971
"Windswept Heath",0,"Land",,"exp","20",mythic,l,Owned,Non-foil,false,,,"","",58847
"Wooded Foothills",0,"Land",,"exp","19",mythic,l,Owned,Non-foil,false,,,"","",58843
"Yavimaya, Cradle of Growth",0,"Land",,"mh2","261",rare,l,Proxied,Non-foil,false,,,"","",90903
